…
     Mean   :NaN   Mean   :NaN  
     3rd Qu.: NA   3rd Qu.: NA  
     Max.   : NA   Max.   : NA  
    > 
    > 
    > #Задание №1. Определить небезопасные точки доступа (без шифрования – OPN)
    > insecure_ap <- ap_clean %>%
    + filter(privacy == "OPN") %>%
    + select(BSSID, ESSID, privacy, cipher, authentication, power)
    > cat("НЕБЕЗОПАСНЫЕ ТОЧКИ ДОСТУПА (БЕЗ ШИФРОВАНИЯ):\n")
    НЕБЕЗОПАСНЫЕ ТОЧКИ ДОСТУПА (БЕЗ ШИФРОВАНИЯ):
    > cat("==========================================\n")
    ==========================================
    > print(insecure_ap)
    # A tibble: 42 × 6
       BSSID             ESSID         privacy cipher authentication power
       <chr>             <chr>         <chr>   <chr>  <chr>          <dbl>
     1 E8:28:C1:DC:B2:52 MIREA_HOTSPOT OPN     NA     NA               -63
     2 E8:28:C1:DC:B2:50 MIREA_GUESTS  OPN     NA     NA               -63
     3 E8:28:C1:DC:B2:51 NA            OPN     NA     NA               -63
     4 E8:28:C1:DC:FF:F2 NA            OPN     NA     NA                -1
     5 00:25:00:FF:94:73 NA            OPN     NA     NA                -1
     6 E8:28:C1:DD:04:52 MIREA_HOTSPOT OPN     NA     NA               -67
     7 E8:28:C1:DE:74:31 NA            OPN     NA     NA               -82
     8 E8:28:C1:DE:74:32 MIREA_HOTSPOT OPN     NA     NA               -69
     9 E8:28:C1:DC:C8:32 MIREA_HOTSPOT OPN     NA     NA               -69
    10 E8:28:C1:DD:04:50 MIREA_GUESTS  OPN     NA     NA               -78
    # ℹ 32 more rows
    # ℹ Use `print(n = ...)` to see more rows
    > 
    > cat("Всего небезопасных точек доступа:", nrow(insecure_ap), "\n\n")
    Всего небезопасных точек доступа: 42 

    > security_summary <- ap_clean %>%
    + count(privacy, name = "count") %>%
    + arrange(desc(count))
    > 
    > cat("РАСПРЕДЕЛЕНИЕ ТИПОВ БЕЗОПАСНОСТИ:\n")
    РАСПРЕДЕЛЕНИЕ ТИПОВ БЕЗОПАСНОСТИ:
    > print(security_summary)
    # A tibble: 80 × 2
       privacy           count
       <chr>             <int>
     1 (not associated)  11895
     2 WPA2                 72
     3 00:25:00:FF:94:73    45
     4 NA                   43
     5 OPN                  42
     6 E8:28:C1:DC:B2:52    12
     7 00:26:99:BA:75:80     9
     8 00:26:99:F2:7A:E2     8
     9 E8:28:C1:DC:C6:B2     8
    10 WPA3 WPA2             8
    # ℹ 70 more rows
    # ℹ Use `print(n = ...)` to see more rows
…
